<svg width="24" height="24" viewBox="0 0 24 24" fill="none" xmlns="http://www.w3.org/2000/svg">
<path fill-rule="evenodd" clip-rule="evenodd" d="M0.5 10C0.5 4.75329 4.75329 0.5 10 0.5C15.2467 0.5 19.5 4.75329 19.5 10C19.5 15.2467 15.2467 19.5 10 19.5C4.75329 19.5 0.5 15.2467 0.5 10ZM10 2.5C5.85786 2.5 2.5 5.85786 2.5 10C2.5 14.1421 5.85786 17.5 10 17.5C14.1421 17.5 17.5 14.1421 17.5 10C17.5 5.85786 14.1421 2.5 10 2.5Z" fill="#0A2540"/>
<path fill-rule="evenodd" clip-rule="evenodd" d="M15.9038 15.9038C16.2943 15.5133 16.9275 15.5133 17.318 15.9038L21.5606 20.1465C21.9512 20.537 21.9512 21.1702 21.5606 21.5607C21.1701 21.9512 20.537 21.9512 20.1464 21.5607L15.9038 17.318C15.5133 16.9275 15.5133 16.2943 15.9038 15.9038Z" fill="#0A2540"/>
</svg>
