<svg width="24" height="24" viewBox="0 0 24 24" fill="none" xmlns="http://www.w3.org/2000/svg">
<path fill-rule="evenodd" clip-rule="evenodd" d="M9.05924 1.39775C9.51708 1.27101 10.0009 1.48388 10.2168 1.90705C10.5488 2.55787 11.2237 3 12 3C12.7763 3 13.4512 2.55787 13.7832 1.90705C13.9991 1.48388 14.4829 1.27101 14.9408 1.39775C16.6647 1.87497 18.2174 2.76064 19.4887 3.94264C19.8122 4.24348 19.9 4.72099 19.7046 5.11724C19.5739 5.38231 19.5 5.6811 19.5 6C19.5 7.10457 20.3954 8 21.5 8C21.5095 8 21.5189 7.99993 21.5284 7.9998C21.9702 7.99373 22.3637 8.27842 22.4961 8.70003C22.8238 9.74301 23 10.8519 23 12C23 12.7578 22.9232 13.4986 22.7767 14.2149C22.6741 14.7167 22.2089 15.0598 21.6992 15.0097C21.634 15.0033 21.5675 15 21.5 15C20.3954 15 19.5 15.8954 19.5 17C19.5 17.4919 19.6763 17.9401 19.9704 18.2886C20.3007 18.6801 20.2818 19.2578 19.9266 19.6269C18.6286 20.9756 16.9882 21.9948 15.1434 22.544C14.6216 22.6994 14.0714 22.4087 13.9056 21.8901C13.6475 21.0827 12.8905 20.5 12 20.5C11.1095 20.5 10.3525 21.0827 10.0944 21.8901C9.92863 22.4087 9.3784 22.6994 8.85656 22.544C7.01183 21.9948 5.37144 20.9756 4.07341 19.6269C3.71824 19.2578 3.69933 18.6801 4.02963 18.2886C4.32368 17.9401 4.5 17.4919 4.5 17C4.5 15.8954 3.60457 15 2.5 15C2.43249 15 2.36605 15.0033 2.3008 15.0097C1.79108 15.0598 1.32591 14.7167 1.22328 14.2149C1.07677 13.4986 1 12.7578 1 12C1 10.8519 1.17624 9.74301 1.50385 8.70003C1.63629 8.27842 2.02976 7.99373 2.47165 7.9998C2.48105 7.99993 2.4905 8 2.5 8C3.60457 8 4.5 7.10457 4.5 6C4.5 5.6811 4.42609 5.38231 4.29539 5.11724C4.1 4.72099 4.18779 4.24348 4.51134 3.94264C5.78259 2.76064 7.3353 1.87497 9.05924 1.39775ZM6.36833 4.97926C6.45429 5.30568 6.5 5.64794 6.5 6C6.5 7.95683 5.09485 9.58547 3.2385 9.93196C3.08262 10.5952 3 11.2874 3 12C3 12.3516 3.02012 12.6982 3.05921 13.0388C5.00362 13.3108 6.5 14.9806 6.5 17C6.5 17.6393 6.34949 18.2445 6.08229 18.7811C6.83231 19.4362 7.69144 19.9686 8.62831 20.3474C9.33859 19.237 10.5824 18.5 12 18.5C13.4176 18.5 14.6614 19.237 15.3717 20.3474C16.3086 19.9686 17.1677 19.4362 17.9177 18.7811C17.6505 18.2445 17.5 17.6393 17.5 17C17.5 14.9806 18.9964 13.3108 20.9408 13.0388C20.9799 12.6982 21 12.3516 21 12C21 11.2874 20.9174 10.5952 20.7615 9.93196C18.9052 9.58547 17.5 7.95683 17.5 6C17.5 5.64794 17.5457 5.30568 17.6317 4.97926C16.8739 4.37056 16.0161 3.88239 15.0873 3.54321C14.3545 4.43185 13.2441 5 12 5C10.7559 5 9.64552 4.43185 8.91265 3.54321C7.98387 3.88239 7.12608 4.37056 6.36833 4.97926Z" fill="#0A2540"/>
<path fill-rule="evenodd" clip-rule="evenodd" d="M12 9.5C10.6193 9.5 9.5 10.6193 9.5 12C9.5 13.3807 10.6193 14.5 12 14.5C13.3807 14.5 14.5 13.3807 14.5 12C14.5 10.6193 13.3807 9.5 12 9.5ZM7.5 12C7.5 9.51472 9.51472 7.5 12 7.5C14.4853 7.5 16.5 9.51472 16.5 12C16.5 14.4853 14.4853 16.5 12 16.5C9.51472 16.5 7.5 14.4853 7.5 12Z" fill="#0A2540"/>
</svg>
