<svg width="24" height="24" viewBox="0 0 24 24" fill="none" xmlns="http://www.w3.org/2000/svg">
<path d="M12 5V19" stroke="#0A2540" stroke-width="2" stroke-linecap="round" stroke-linejoin="round"/>
<path d="M19 12L12 19L5 12" stroke="#0A2540" stroke-width="2" stroke-linecap="round" stroke-linejoin="round"/>
</svg>
