<svg width="24" height="24" viewBox="0 0 24 24" fill="none" xmlns="http://www.w3.org/2000/svg">
<path fill-rule="evenodd" clip-rule="evenodd" d="M4.04871 6.49729C4.15771 6.21978 4.44016 6 4.8 6H19.2C19.5598 6 19.8423 6.21977 19.9513 6.49727L12 11.7981L4.04871 6.49729ZM2 6.98343C1.99984 6.99386 1.99984 7.00429 2 7.0147V17.25C2 18.7912 3.28446 20 4.8 20H19.2C20.7155 20 22 18.7912 22 17.25V7.01257C22.0001 7.00357 22.0001 6.99457 22 6.98556V6.75C22 5.20885 20.7155 4 19.2 4H4.8C3.28446 4 2 5.20885 2 6.75V6.98343ZM20 8.86849V17.25C20 17.6338 19.6645 18 19.2 18H4.8C4.33554 18 4 17.6338 4 17.25V8.86851L11.4453 13.832C11.7812 14.056 12.2188 14.056 12.5547 13.832L20 8.86849Z" fill="#0A2540"/>
</svg>
