<svg width="24" height="24" viewBox="0 0 24 24" fill="none" xmlns="http://www.w3.org/2000/svg">
<path fill-rule="evenodd" clip-rule="evenodd" d="M17.2665 21C17.0946 21.0014 16.9256 20.9557 16.7778 20.868C16.63 20.7802 16.509 20.6536 16.428 20.502L15.75 18.75H8.25L7.572 20.502C7.49086 20.6538 7.36966 20.7805 7.22157 20.8683C7.07348 20.9561 6.90415 21.0017 6.732 21H5.4375C5.19387 21.0048 4.9583 20.9127 4.78251 20.744C4.60673 20.5752 4.50512 20.3436 4.5 20.1V5.175C4.5 4.416 5.055 3.762 5.8305 3.609C7.887 3.204 9.945 3 12 3C14.055 3 16.113 3.2025 18.1695 3.609C18.9435 3.762 19.5 4.416 19.5 5.1765V20.1C19.5 20.5965 19.08 21 18.5625 21H17.2665ZM12 8.25C9.531 8.25 7.7925 8.346 6.786 8.538C6.327 8.6265 6 8.982 6 9.393V12.6255C6 13.1085 6.447 13.5 7.0005 13.5H16.9995C17.5515 13.5 18 13.1085 18 12.6255V9.393C18 8.982 17.673 8.6265 17.214 8.538C16.2075 8.346 14.469 8.25 12 8.25ZM16.5 18C16.8978 18 17.2794 17.842 17.5607 17.5607C17.842 17.2794 18 16.8978 18 16.5C18 16.1022 17.842 15.7206 17.5607 15.4393C17.2794 15.158 16.8978 15 16.5 15C16.1022 15 15.7206 15.158 15.4393 15.4393C15.158 15.7206 15 16.1022 15 16.5C15 16.8978 15.158 17.2794 15.4393 17.5607C15.7206 17.842 16.1022 18 16.5 18ZM7.5 18C7.89782 18 8.27936 17.842 8.56066 17.5607C8.84196 17.2794 9 16.8978 9 16.5C9 16.1022 8.84196 15.7206 8.56066 15.4393C8.27936 15.158 7.89782 15 7.5 15C7.10218 15 6.72064 15.158 6.43934 15.4393C6.15804 15.7206 6 16.1022 6 16.5C6 16.8978 6.15804 17.2794 6.43934 17.5607C6.72064 17.842 7.10218 18 7.5 18ZM14.25 6V7.5H15.75V6H14.25ZM12.75 4.5V6H14.25V4.5H12.75ZM11.25 6V7.5H12.75V6H11.25ZM9.75 4.5V6H11.25V4.5H9.75ZM8.25 6V7.5H9.75V6H8.25Z" fill="#B43DCC"/>
</svg>
