<svg width="24" height="24" viewBox="0 0 24 24" fill="none" xmlns="http://www.w3.org/2000/svg">
<path d="M1.22727 12.2014L13.1398 7.29318C14.3158 6.78192 18.3038 5.14597 18.3038 5.14597C18.3038 5.14597 20.1444 4.43026 19.9909 6.16843C19.9398 6.88415 19.531 9.38939 19.1218 12.099L17.8438 20.1256C17.8438 20.1256 17.7414 21.3015 16.8707 21.506C16.0002 21.7106 14.5701 20.7904 14.3146 20.5857C14.1102 20.4324 10.4801 18.1318 9.15065 17.007C8.79268 16.7003 8.38376 16.0866 9.20183 15.371C11.0424 13.6838 13.241 11.5875 14.5701 10.2583C15.1837 9.6448 15.7971 8.21325 13.2408 9.95171L6.03192 14.8087C6.03192 14.8087 5.21375 15.3199 3.68009 14.8599C2.14639 14.3998 0.356928 13.7863 0.356928 13.7863C0.356928 13.7863 -0.870152 13.0194 1.22608 12.2015L1.22727 12.2014Z" fill="#0A2540"/>
</svg>
